…
```
## 
## FALSE  TRUE 
## 15264  2304
```

Speaking of NA values, there are 2,304 NA values in the steps column.


```r
na_steps <- data[is.na(data$steps),] %>% print
```

```
## # A tibble: 2,304 × 3
##    steps date       interval
##    <dbl> <date>        <dbl>
##  1    NA 2012-10-01        0
##  2    NA 2012-10-01        5
##  3    NA 2012-10-01       10
##  4    NA 2012-10-01       15
##  5    NA 2012-10-01       20
##  6    NA 2012-10-01       25
##  7    NA 2012-10-01       30
##  8    NA 2012-10-01       35
##  9    NA 2012-10-01       40
## 10    NA 2012-10-01       45
## # … with 2,294 more rows
```
…
### Calculate the total number of steps taken per day

```r
# Calculate the total number of steps taken per day

steps_per_day <- data %>%
        group_by(date) %>%
        summarize(sum_steps = sum(steps, na.rm=TRUE)) %>% 
        print
```

```
## # A tibble: 61 × 2
##    date       sum_steps
##    <date>         <dbl>
##  1 2012-10-01         0
##  2 2012-10-02       126
##  3 2012-10-03     11352
##  4 2012-10-04     12116
##  5 2012-10-05     13294
##  6 2012-10-06     15420
##  7 2012-10-07     11015
##  8 2012-10-08         0
##  9 2012-10-09     12811
## 10 2012-10-10      9900
## # … with 51 more rows
```
…
### Which 5-minute interval, on average across all the days in the dataset, contains the maximum number of steps?

First I create a dataframe with the average_steps_per_interval:


```r
average_steps_per_interval <- data %>%
        group_by(interval) %>%
        summarize(average_steps = mean(steps, na.rm=TRUE)) %>% 
        print
```

```
## # A tibble: 288 × 2
##    interval average_steps
##       <dbl>         <dbl>
##  1        0        1.72  
##  2        5        0.340 
##  3       10        0.132 
##  4       15        0.151 
##  5       20        0.0755
##  6       25        2.09  
##  7       30        0.528 
##  8       35        0.868 
##  9       40        0     
## 10       45        1.47  
## # … with 278 more rows
```
…
```
## [1] 4.371585
```
The total number of NA values is 2304. It is a bit over 4% of the data. Even though there 
is some missing data, it is still under 5% of the data, so all in all, it should not be as relevant.


```r
is_na <- data[is.na(data$steps),] %>% print
```

```
## # A tibble: 2,304 × 3
##    steps date       interval
##    <dbl> <date>        <dbl>
##  1    NA 2012-10-01        0
##  2    NA 2012-10-01        5
##  3    NA 2012-10-01       10
##  4    NA 2012-10-01       15
##  5    NA 2012-10-01       20
##  6    NA 2012-10-01       25
##  7    NA 2012-10-01       30
##  8    NA 2012-10-01       35
##  9    NA 2012-10-01       40
## 10    NA 2012-10-01       45
## # … with 2,294 more rows
```
…
Strategy: As already mentioned aboved, I prefer to take the meanfor that 5 minute interval because during the day, the steps taken per interval differ a lot.

### Create a new dataset that is equal to the original dataset but with the 
missing data filled in.

First, I filter the data that is missing into a dataframe is_na. Then, I calculate 
the average_steps_per_interval.


```r
is_na <- data %>% filter(is.na(steps)==TRUE) %>% print
```

```
## # A tibble: 2,304 × 3
##    steps date       interval
##    <dbl> <date>        <dbl>
##  1    NA 2012-10-01        0
##  2    NA 2012-10-01        5
##  3    NA 2012-10-01       10
##  4    NA 2012-10-01       15
##  5    NA 2012-10-01       20
##  6    NA 2012-10-01       25
##  7    NA 2012-10-01       30
##  8    NA 2012-10-01       35
##  9    NA 2012-10-01       40
## 10    NA 2012-10-01       45
## # … with 2,294 more rows
```

```r
average_steps_per_interval <- data %>%
        group_by(interval) %>%
        summarize(steps = mean(steps, na.rm=TRUE)) %>% 
        print
```

```
## # A tibble: 288 × 2
##    interval  steps
##       <dbl>  <dbl>
##  1        0 1.72  
##  2        5 0.340 
##  3       10 0.132 
##  4       15 0.151 
##  5       20 0.0755
##  6       25 2.09  
##  7       30 0.528 
##  8       35 0.868 
##  9       40 0     
## 10       45 1.47  
## # … with 278 more rows
```

Now I integrate is_na and average_steps_per_interval into one dataframe.


```r
mean_steps_integrated <- left_join(is_na[,2:3], average_steps_per_interval) %>% print
```

```
## Joining, by = "interval"
```

```
## # A tibble: 2,304 × 3
##    date       interval  steps
##    <date>        <dbl>  <dbl>
##  1 2012-10-01        0 1.72  
##  2 2012-10-01        5 0.340 
##  3 2012-10-01       10 0.132 
##  4 2012-10-01       15 0.151 
##  5 2012-10-01       20 0.0755
##  6 2012-10-01       25 2.09  
##  7 2012-10-01       30 0.528 
##  8 2012-10-01       35 0.868 
##  9 2012-10-01       40 0     
## 10 2012-10-01       45 1.47  
## # … with 2,294 more rows
```

And now I merge the resulting dataframe mean_steps_integrated into the data dataframe:


```r
data_imputed <- data %>% filter(is.na(steps)==FALSE) %>% bind_rows(mean_steps_integrated) %>% arrange(date) %>% print
```

```
## # A tibble: 17,568 × 3
##     steps date       interval
##     <dbl> <date>        <dbl>
##  1 1.72   2012-10-01        0
##  2 0.340  2012-10-01        5
##  3 0.132  2012-10-01       10
##  4 0.151  2012-10-01       15
##  5 0.0755 2012-10-01       20
##  6 2.09   2012-10-01       25
##  7 0.528  2012-10-01       30
##  8 0.868  2012-10-01       35
##  9 0      2012-10-01       40
## 10 1.47   2012-10-01       45
## # … with 17,558 more rows
```

### Make a histogram of the total number of steps taken each day and report the mean and median total number of steps taken per day. Do these values differ from the estimates from the first part of the assignment? What is the impact of imputing missing data on the estimates of the total daily number of steps?

First I calculate sum of steps per day for the data_imputed dataset:


```r
steps_per_day_imputed <- data_imputed %>% 
  group_by(date) %>% 
  summarize(sum_steps = sum(steps)) %>% 
  print
```

```
## # A tibble: 61 × 2
##    date       sum_steps
##    <date>         <dbl>
##  1 2012-10-01    10766.
##  2 2012-10-02      126 
##  3 2012-10-03    11352 
##  4 2012-10-04    12116 
##  5 2012-10-05    13294 
##  6 2012-10-06    15420 
##  7 2012-10-07    11015 
##  8 2012-10-08    10766.
##  9 2012-10-09    12811 
## 10 2012-10-10     9900 
## # … with 51 more rows
```
…
weekday <- temp_tbl %>% 
  filter(!((weekdays == "Sun") | (weekdays == "Sat"))) %>% 
  mutate(weektime = "weekday")

data_imputed <- full_join(weekend, weekday) %>% 
  select(-weekdays) %>% 
  mutate(weektime=as.factor(weektime)) %>% print
```

```
## Joining, by = c("steps", "date", "interval", "weekdays", "weektime")
```

```
## # A tibble: 17,568 × 4
##    steps date       interval weektime
##    <dbl> <date>        <dbl> <fct>   
##  1     0 2012-10-06        0 weekend 
##  2     0 2012-10-06        5 weekend 
##  3     0 2012-10-06       10 weekend 
##  4     0 2012-10-06       15 weekend 
##  5     0 2012-10-06       20 weekend 
##  6     0 2012-10-06       25 weekend 
##  7     0 2012-10-06       30 weekend 
##  8     0 2012-10-06       35 weekend 
##  9     0 2012-10-06       40 weekend 
## 10     0 2012-10-06       45 weekend 
## # … with 17,558 more rows
```
…
```r
weektime_average_steps <- data_imputed %>% 
  group_by(interval, weektime) %>% 
  summarize(average_steps = mean(steps)) %>% 
  print
```

```
## `summarise()` has grouped output by 'interval'. You can override using the `.groups` argument.
```

```
## # A tibble: 576 × 3
## # Groups:   interval [288]
##    interval weektime average_steps
##       <dbl> <fct>            <dbl>
##  1        0 weekday        2.25   
##  2        0 weekend        0.215  
##  3        5 weekday        0.445  
##  4        5 weekend        0.0425 
##  5       10 weekday        0.173  
##  6       10 weekend        0.0165 
##  7       15 weekday        0.198  
##  8       15 weekend        0.0189 
##  9       20 weekday        0.0990 
## 10       20 weekend        0.00943
## # … with 566 more rows
```
…
